{
  "type": "FeatureCollection",
  "count": 505042,
  "next": "http://trees.codefor.de/api/trees/?in_bbox=13.2&in_bbox=52.427&in_bbox=13.21&in_bbox=52.428&page=2",
  "previous": null,
  "features": [
    {
      "id": 236109,
      "type": "Feature",
      "geometry": {
        "type": "Point",
        "coordinates": [
          13.387333683059067,
          52.51696957583498
        ]
      },
      "properties": {
        "genus_latin": "TILIA",
        "HausNr": "36",
        "tree_height": "8",
        "owner": "Land Berlin",
        "StrName": "Unter den Linden",
        "trunk_circumference": "125",
        "species_latin": "TILIA TOMENTOSA",
        "location_number": "36ggü/1",
        "spatial_alias": "F3__935418",
        "year_of_planting": "1950",
        "identification_tag": "00184",
        "spatial_name": "F3__935418",
        "address": "Unter den Linden",
        "downloaded_at": "2016-08-13T23:02:56Z",
        "spatial_type": "Point",
        "ingested_at": "2016-08-15T21:02:31.614Z",
        "ALK_Nr4st": "190",
        "age": "66",
        "crown_diameter": "9",
        "district_id": "Mitte",
        "gml_id": "re_strassenbaeume.F3__935418",
        "species_german": "SILBER-LINDE",
        "Zusatz": "ggü"
      }
    },
    {
      "id": 167755,
      "type": "Feature",
      "geometry": {
        "type": "Point",
        "coordinates": [
          13.310954621529628,
          52.617745969610034
        ]
      },
      "properties": {
        "trunk_circumference": "31",
        "genus_latin": "FAGUS",
        "ingested_at": "2016-08-15T19:30:47.290Z",
        "spatial_alias": "F10__14120",
        "identification_tag": "01066",
        "age": "16",
        "crown_diameter": "",
        "district_id": "Reinickendorf",
        "tree_height": "3",
        "downloaded_at": "2016-08-13T22:57:36Z",
        "species_latin": "FAGUS SYLVATICA",
        "gml_id": "re_anlagenbaeume.F10__14120",
        "spatial_name": "F10__14120",
        "address": "Schloßstr. - Wachsmutstr.",
        "owner": "Land Berlin",
        "species_german": "ROT-BUCHE  - WALD-BUCHE",
        "spatial_type": "Point",
        "location_number": "A/050",
        "year_of_planting": "2000"
      }
    },
    {
      "id": 167756,
      "type": "Feature",
      "geometry": {
        "type": "Point",
        "coordinates": [
          13.310950546870723,
          52.61772169144599
        ]
      },
      "properties": {
        "trunk_circumference": "188",
        "genus_latin": "ROBINIA",
        "ingested_at": "2016-08-15T19:30:47.290Z",
        "spatial_alias": "F10__14121",
        "identification_tag": "01066",
        "age": "46",
        "crown_diameter": "",
        "district_id": "Reinickendorf",
        "tree_height": "17",
        "downloaded_at": "2016-08-13T22:57:36Z",
        "species_latin": "ROBINIA PSEUDOACACIA",
        "gml_id": "re_anlagenbaeume.F10__14121",
        "spatial_name": "F10__14121",
        "address": "Schloßstr. - Wachsmutstr.",
        "owner": "Land Berlin",
        "species_german": "SCHEIN-AKAZIE - SILBERREGEN",
        "spatial_type": "Point",
        "location_number": "A/052",
        "year_of_planting": "1970"
      }
    },
    {
      "id": 167757,
      "type": "Feature",
      "geometry": {
        "type": "Point",
        "coordinates": [
          13.310940191015906,
          52.6176918490618
        ]
      },
      "properties": {
        "trunk_circumference": "47",
        "genus_latin": "QUERCUS",
        "ingested_at": "2016-08-15T19:30:47.290Z",
        "spatial_alias": "F10__14122",
        "identification_tag": "01066",
        "age": "26",
        "crown_diameter": "",
        "district_id": "Reinickendorf",
        "tree_height": "3",
        "downloaded_at": "2016-08-13T22:57:36Z",
        "species_latin": "QUERCUS ROBUR",
        "gml_id": "re_anlagenbaeume.F10__14122",
        "spatial_name": "F10__14122",
        "address": "Schloßstr. - Wachsmutstr.",
        "owner": "Land Berlin",
        "species_german": "SOMMER-EICHE - STIEL-EICHE",
        "spatial_type": "Point",
        "location_number": "A/053",
        "year_of_planting": "1990"
      }
    },
    {
      "id": 167758,
      "type": "Feature",
      "geometry": {
        "type": "Point",
        "coordinates": [
          13.310918576851476,
          52.61763853145951
        ]
      },
      "properties": {
        "trunk_circumference": "63",
        "genus_latin": "CARPINUS",
        "ingested_at": "2016-08-15T19:30:47.290Z",
        "spatial_alias": "F10__14123",
        "identification_tag": "01066",
        "age": "26",
        "crown_diameter": "",
        "district_id": "Reinickendorf",
        "tree_height": "3",
        "downloaded_at": "2016-08-13T22:57:36Z",
        "species_latin": "CARPINUS BETULUS",
        "gml_id": "re_anlagenbaeume.F10__14123",
        "spatial_name": "F10__14123",
        "address": "Schloßstr. - Wachsmutstr.",
        "owner": "Land Berlin",
        "species_german": "GEMEINE HAINBUCHE - GEMEINE WEISSBUCHE",
        "spatial_type": "Point",
        "location_number": "A/055",
        "year_of_planting": "1990"
      }
    },
    {
      "id": 167759,
      "type": "Feature",
      "geometry": {
        "type": "Point",
        "coordinates": [
          13.310994917173044,
          52.61771843019205
        ]
      },
      "properties": {
        "trunk_circumference": "94",
        "genus_latin": "CARPINUS",
        "ingested_at": "2016-08-15T19:30:47.290Z",
        "spatial_alias": "F10__14124",
        "identification_tag": "01066",
        "age": "36",
        "crown_diameter": "",
        "district_id": "Reinickendorf",
        "tree_height": "3",
        "downloaded_at": "2016-08-13T22:57:36Z",
        "species_latin": "CARPINUS BETULUS",
        "gml_id": "re_anlagenbaeume.F10__14124",
        "spatial_name": "F10__14124",
        "address": "Schloßstr. - Wachsmutstr.",
        "owner": "Land Berlin",
        "species_german": "GEMEINE HAINBUCHE - GEMEINE WEISSBUCHE",
        "spatial_type": "Point",
        "location_number": "A/054",
        "year_of_planting": "1980"
      }
    },
    {
      "id": 167760,
      "type": "Feature",
      "geometry": {
        "type": "Point",
        "coordinates": [
          13.310864459400717,
          52.617632441455456
        ]
      },
      "properties": {
        "trunk_circumference": "110",
        "genus_latin": "ROBINIA",
        "ingested_at": "2016-08-15T19:30:47.290Z",
        "spatial_alias": "F10__14125",
        "identification_tag": "01066",
        "age": "36",
        "crown_diameter": "",
        "district_id": "Reinickendorf",
        "tree_height": "12",
        "downloaded_at": "2016-08-13T22:57:36Z",
        "species_latin": "ROBINIA PSEUDOACACIA",
        "gml_id": "re_anlagenbaeume.F10__14125",
        "spatial_name": "F10__14125",
        "address": "Schloßstr. - Wachsmutstr.",
        "owner": "Land Berlin",
        "species_german": "SCHEIN-AKAZIE - SILBERREGEN",
        "spatial_type": "Point",
        "location_number": "A/056",
        "year_of_planting": "1980"
      }
    },
    {
      "id": 167761,
      "type": "Feature",
      "geometry": {
        "type": "Point",
        "coordinates": [
          13.310754978538524,
          52.6176166345996
        ]
      },
      "properties": {
        "trunk_circumference": "188",
        "genus_latin": "QUERCUS",
        "ingested_at": "2016-08-15T19:30:47.290Z",
        "spatial_alias": "F10__14126",
        "identification_tag": "01066",
        "age": "56",
        "crown_diameter": "",
        "district_id": "Reinickendorf",
        "tree_height": "15",
        "downloaded_at": "2016-08-13T22:57:36Z",
        "species_latin": "QUERCUS ROBUR",
        "gml_id": "re_anlagenbaeume.F10__14126",
        "spatial_name": "F10__14126",
        "address": "Schloßstr. - Wachsmutstr.",
        "owner": "Land Berlin",
        "species_german": "SOMMER-EICHE - STIEL-EICHE",
        "spatial_type": "Point",
        "location_number": "A/058",
        "year_of_planting": "1960"
      }
    },
    {
      "id": 167762,
      "type": "Feature",
      "geometry": {
        "type": "Point",
        "coordinates": [
          13.310853218704349,
          52.61758399118044
        ]
      },
      "properties": {
        "trunk_circumference": "31",
        "genus_latin": "QUERCUS",
        "ingested_at": "2016-08-15T19:30:47.290Z",
        "spatial_alias": "F10__14127",
        "identification_tag": "01066",
        "age": "11",
        "crown_diameter": "",
        "district_id": "Reinickendorf",
        "tree_height": "3",
        "downloaded_at": "2016-08-13T22:57:36Z",
        "species_latin": "QUERCUS ROBUR",
        "gml_id": "re_anlagenbaeume.F10__14127",
        "spatial_name": "F10__14127",
        "address": "Schloßstr. - Wachsmutstr.",
        "owner": "Land Berlin",
        "species_german": "SOMMER-EICHE - STIEL-EICHE",
        "spatial_type": "Point",
        "location_number": "A/059",
        "year_of_planting": "2005"
      }
    },
    {
      "id": 167763,
      "type": "Feature",
      "geometry": {
        "type": "Point",
        "coordinates": [
          13.310598773566458,
          52.61759854548177
        ]
      },
      "properties": {
        "trunk_circumference": "220",
        "genus_latin": "QUERCUS",
        "ingested_at": "2016-08-15T19:30:47.290Z",
        "spatial_alias": "F10__14128",
        "identification_tag": "01066",
        "age": "106",
        "crown_diameter": "",
        "district_id": "Reinickendorf",
        "tree_height": "18",
        "downloaded_at": "2016-08-13T22:57:36Z",
        "species_latin": "QUERCUS ROBUR",
        "gml_id": "re_anlagenbaeume.F10__14128",
        "spatial_name": "F10__14128",
        "address": "Schloßstr. - Wachsmutstr.",
        "owner": "Land Berlin",
        "species_german": "SOMMER-EICHE - STIEL-EICHE",
        "spatial_type": "Point",
        "location_number": "A/061",
        "year_of_planting": "1910"
      }
    }
  ]
}
